,Stem,Count,Whitelist
0,medic,7790,x
1,public,5066,
2,ubiic,1836,
3,frideric,1419,
4,henric,1139,
5,iuridic,1135,x
6,ludouic,1025,
7,theologic,810,x
8,mic,808,
9,nic,745,
10,chirurgic,471,x
11,historic,374,x
12,anatomic,360,x
13,physic,358,x
14,physiologic,354,
15,philologic,334,x
16,ic,329,
17,philosophic,324,x
18,academic,317,
19,practic,266,
20,politic,229,x
21,indic,199,
22,lic,186,
23,uic,175,
24,iudic,161,x
25,dic,150,
26,ric,128,
27,uesic,107,
28,pathologic,107,x
29,felic,105,
30,auspic,104,
31,benedic,103,
32,diffic,102,
33,therapeutic,97,x
34,propemptic,97,x
35,uentric,97,
36,magnific,96,
37,heinric,96,
38,botanic,90,x
39,chemic,87,x
40,explic,87,
41,chymic,84,x
42,colic,80,
43,offic,79,
44,critic,78,
45,pic,77,
46,uindic,74,
47,effic,73,
48,ecclesiastic,73,x
49,dominic,73,
50,ulric,71,
51,germanic,71,
52,implic,67,
53,fabric,66,
54,frederic,62,
55,mechanic,58,x
56,eric,56,
57,theoretic,55,
58,logic,55,x
59,canonic,54,x
60,obstetric,54,x
61,peric,53,
62,emetic,52,x
63,misnic,49,
64,hysteric,48,
65,ethic,47,x
66,pontific,45,
67,artic,44,
68,reic,40,
69,amic,40,
70,noric,39,
71,friederic,38,
72,israelitic,38,
73,melancholic,36,
74,dieteric,35,
75,cortic,34,
76,epidemic,33,x
77,mauric,33,
78,clinic,33,x
79,chronic,33,x
80,pecific,33,
81,codic,31,
82,mathematic,30,x
83,artific,30,
84,médic,29,x
85,fic,29,
86,axonic,27,
87,corbutic,27,
88,metaphysic,26,x
89,gallic,26,
90,exegetic,26,x
91,tric,25,
92,chimic,25,x
93,pharmaceutic,25,x
94,dideric,25,
95,aulic,25,
96,teic,24,
97,goelic,24,
98,partic,24,
99,cic,23,
100,chic,23,
101,metallic,22,
102,applic,22,
103,fric,22,
104,dysenteric,21,
105,apologetic,21,x
106,cleric,21,x
107,chronologic,20,x
108,pasmodic,20,
109,republic,20,
110,catholic,20,x
111,hectic,20,
112,unic,19,
113,rhetoric,19,x
114,electric,19,x
115,reipublic,19,
116,dogmatic,19,x
117,iustific,19,
118,delic,18,
119,periodic,18,
120,elastic,18,
121,narcotic,18,
122,leic,17,
123,eic,17,
124,benefic,17,
125,theoric,17,
126,epic,17,
127,complic,17,
128,bic,17,
129,biblic,16,
130,caustic,16,
131,fanatic,16,
132,cathartic,15,
133,radic,15,
134,apostolic,15,x
135,anguific,15,
136,hippocratic,15,
137,music,15,
138,carific,14,
139,methodic,14,
140,acrific,14,
141,hebraic,14,
142,marchic,14,
143,empiric,14,
144,hydropic,13,
145,belgic,13,
146,fascic,13,
147,cystic,13,
148,friedric,13,
149,praedic,13,
150,tunic,13,
151,triplic,13,
152,iurisdic,13,x
153,chylific,13,
154,magic,13,
155,brunsuic,13,
156,euangelic,12,x
157,huic,12,
158,fontic,12,
159,phthisic,12,
160,epistolic,12,
161,brandenburgic,12,
162,praeiudic,12,
163,domestic,12,
164,uperfic,12,
165,duplic,12,
166,hulderic,11,
167,hungaric,11,
168,multiplic,11,
169,huldric,11,
170,diaphoretic,11,
171,ignific,11,
172,organic,11,
173,diaetetic,11,x
174,perfic,11,
175,morbific,11,
176,diuretic,11,
177,anglic,11,
178,astronomic,11,x
179,pneumatic,10,x
180,iatric,10,x
181,diiudic,10,
182,umbilic,10,
183,rustic,10,
184,nephritic,10,
185,heluic,10,
186,funic,10,
187,uaric,10,
188,panegyric,10,
189,topic,10,
190,lymphatic,10,
191,fideic,10,
192,wic,9,
193,nutric,9,
194,angelic,9,
195,prophetic,9,x
196,iudaic,9,
197,geographic,9,x
198,microcosmic,9,
199,gothic,9,
200,antic,9,
201,uatic,9,
202,illic,9,
203,galenic,8,
204,pernic,8,
205,communic,8,
206,immodic,8,
207,pratic,8,
208,orbonic,8,
209,dietric,8,
210,lumbric,8,
211,febric,8,
212,diagnostic,8,
213,poetic,8,x
214,exanthematic,8,
215,gymnastic,8,
216,pacific,8,
217,agric,8,
218,edic,8,
219,medicatric,8,
220,profic,8,
221,ymptomatic,8,x
222,emiotic,7,x
223,appendic,7,
224,harderouic,7,
225,grammatic,7,x
226,prophylactic,7,
227,espic,7,
228,abdic,7,
229,cholastic,7,
230,mosaic,7,
231,clauic,7,
232,conflic,7,
233,hydraulic,7,x
234,tomachic,7,
235,babylonic,7,
236,confic,7,
237,rerumpublic,7,
238,patric,7,
239,bellic,7,
240,propemtic,7,x
241,oeconomic,7,x
242,cilic,7,
243,udorific,7,
244,frontispic,7,
245,chaumburgic,7,
246,udalric,7,
247,inoffic,7,
248,plic,7,
249,praetic,6,
250,heydenreic,6,
251,mastic,6,
252,tonic,6,
253,thoracic,6,
254,iric,6,
255,homic,6,
256,climacteric,6,
257,uffic,6,
258,lignic,6,
259,hepatic,6,
260,inuic,6,
261,adiic,6,
262,hispanic,6,
263,theodoric,6,
264,arthritic,6,
265,böttic,6,
266,fridric,6,
267,ueogothic,6,
268,eucharistic,6,
269,lespic,6,
270,heroic,6,
271,interdic,6,
272,automatic,6,
273,phisiologic,6,
274,italic,6,
275,adstric,6,
276,pollic,6,
277,hic,6,
278,oecumenic,5,x
279,haeretic,5,x
280,omlandic,5,
281,platonic,5,x
282,uindelic,5,
283,geometric,5,x
284,basilic,5,
285,uomic,5,
286,americ,5,
287,talmudic,5,
288,infantic,5,
289,pleuritic,5,
290,munic,5,
291,calic,5,
292,hemic,5,
293,idiopathic,5,
294,condic,5,
295,aromatic,5,
296,planchnologic,5,x
297,magnetic,5,
298,alphabetic,5,
299,cantic,5,
300,hypnotic,5,
301,arabic,5,
302,leuitic,5,
303,choleric,5,
304,abic,5,
305,loric,5,
306,teinic,5,
307,geric,5,
308,rabbinic,5,
309,francic,5,
310,toic,5,
311,domic,5,
312,uspic,5,
313,insuffic,5,
314,louic,5,
315,diederic,5,
316,auric,5,
317,matric,5,
318,alic,5,
319,inflic,5,
320,polemic,5,
321,ungaric,4,
322,laic,4,
323,dialectic,4,
324,yndic,4,
325,monarchic,4,
326,hermeneutic,4,
327,contradic,4,
328,uiogothic,4,
329,polonic,4,
330,neoteric,4,
331,diteric,4,
332,aedific,4,
333,hendric,4,
334,ienic,4,
335,britannic,4,
336,classic,4,
337,wittic,4,
338,heluetic,4,
339,pultic,4,
340,mystic,4,
341,westphalic,4,
342,bituric,4,
343,ehrlic,4,
344,chwartzburgic,4,
345,ulpic,4,
346,formatric,4,
347,hollandic,4,
348,gastric,4,
349,analytic,4,
350,osteologic,4,
351,permatic,4,
352,infelic,4,
353,conspic,4,
354,peripatetic,4,
355,hellenistic,4,
356,authentic,4,
357,dioptric,4,
358,amplific,4,
359,tillic,4,
360,prognostic,4,
361,exotic,4,
362,bottic,4,
363,physicomedic,4,
364,epileptic,4,
365,affic,4,
366,cubic,4,
367,plenetic,4,
368,childeric,4,
369,hennebergic,4,
370,motric,4,
371,testic,4,
372,anthologic,4,
373,delabic,4,
374,denic,4,
375,conuic,4,
376,persic,4,
377,balsamic,4,
378,hardouic,4,
379,emmeric,4,
380,conseruatric,4,
381,lapic,4,
382,erratic,3,
383,hohenloic,3,
384,kletwic,3,
385,ruthenic,3,
386,moscouitic,3,
387,antepileptic,3,
388,ymbolic,3,
389,mochlic,3,
390,mönnic,3,
391,harderuic,3,
392,arnic,3,
393,papistic,3,
394,rempublic,3,
395,upplic,3,
396,iustic,3,
397,teutonic,3,
398,modific,3,
399,maiestatic,3,
400,habic,3,
401,rütenic,3,
402,ynoptic,3,
403,orific,3,
404,pulic,3,
405,pyrotic,3,
406,antispasmodic,3,
407,bezoardic,3,
408,antinephritic,3,
409,nassouic,3,
410,respublic,3,
411,frédéric,3,
412,urtic,3,
413,phlogistic,3,
414,maic,3,
415,latic,3,
416,phoenic,3,
417,gelric,3,
418,lipsic,3,
419,asthmatic,3,
420,ystematic,3,
421,wallic,3,
422,intric,3,
423,exsic,3,
424,neric,3,
425,heidenreic,3,
426,robic,3,
427,tic,3,
428,hodoeporic,3,
429,attic,3,
430,mineralogic,3,
431,curatric,3,
432,uidelic,3,
433,apic,3,
434,uenefic,3,
435,franconic,3,
436,obiic,3,
437,genealogic,3,
438,ualedic,3,
439,chorographic,3,
440,aristotelic,3,
441,bric,3,
442,uolatic,3,
443,leric,3,
444,monastic,3,
445,meudonic,3,
446,hermetic,3,
447,gleic,3,
448,reiic,3,
449,lotharingic,3,
450,hygietic,3,
451,antiphlogistic,3,
452,peristaltic,3,
453,gorlic,3,
454,perspic,3,
455,brunouic,3,
456,chemnic,3,
457,mesenteric,3,
458,dedic,3,
459,parric,3,
460,ossific,3,
461,weic,3,
462,hierozoic,3,
463,refic,3,
464,gryphic,3,
465,optic,3,
466,gestric,3,
467,dittric,3,
468,podagric,3,
469,homiletic,2,
470,eigentlic,2,
471,halic,2,
472,traumatic,2,
473,ebraic,2,
474,icteric,2,
475,anthelmintic,2,
476,chlic,2,
477,yncoptic,2,
478,ympathic,2,
479,episcopic,2,
480,constric,2,
481,curric,2,
482,mephitic,2,
483,restric,2,
484,epispastic,2,
485,gottreic,2,
486,berlic,2,
487,problematic,2,
488,zollic,2,
489,uendic,2,
490,dolorific,2,
491,physiologicomedic,2,
492,digastric,2,
493,ific,2,
494,emeric,2,
495,pythagoric,2,
496,uiuific,2,
497,drastic,2,
498,crannic,2,
499,nosologic,2,
500,euic,2,
501,cenic,2,
502,intoxic,2,
503,ebroic,2,
504,colchic,2,
505,hoënloic,2,
506,iiic,2,
507,dergleic,2,
508,henic,2,
509,paracelsic,2,
510,ynthetic,2,
511,psic,2,
512,retic,2,
513,unehlic,2,
514,ueronic,2,
515,astric,2,
516,hyperic,2,
517,antiseptic,2,
518,liturgic,2,
519,prolic,2,
520,uésic,2,
521,exercic,2,
522,comic,2,
523,missatic,2,
524,diactetic,2,
525,zeylanic,2,
526,anctific,2,
527,numismatic,2,
528,arithmetic,2,
529,georgic,2,
530,paralytic,2,
531,nouic,2,
532,tibic,2,
533,bechic,2,
534,arsenic,2,
535,catharetic,2,
536,cabic,2,
537,generic,2,
538,defic,2,
539,eptic,2,
540,compendic,2,
541,postic,2,
542,cynic,2,
543,pragmatic,2,
544,hydrocephalic,2,
545,opific,2,
546,adamitic,2,
547,hidrotic,2,
548,chric,2,
549,carolingic,2,
550,lithontriptic,2,
551,pelic,2,
552,neubic,2,
553,propemplic,2,
554,ciuic,2,
555,cuic,2,
556,cythic,2,
557,pathetic,2,
558,floric,2,
559,cachectic,2,
560,diric,2,
561,theoreticopractic,2,
562,helbic,2,
563,morganatic,2,
564,uidnic,2,
565,ieric,2,
566,filic,2,
567,lindic,2,
568,uehic,2,
569,meric,2,
570,cornic,2,
571,diuinatric,2,
572,deuic,2,
573,theoritic,2,
574,guic,2,
575,burgundic,2,
576,hydrographic,2,
577,chwarzburgic,2,
578,chmidic,2,
579,pneumatologic,2,
580,ethnic,2,
581,hemistic,2,
582,phlebotomic,2,
583,herpetic,2,
584,relic,2,
585,geistlic,2,
586,hohenlogic,2,
587,ebric,2,
588,incommunic,2,
589,erudic,2,
590,aronitic,2,
591,arcimbaldic,2,
592,borussic,2,
593,hoenloic,2,
594,prædic,2,
595,unuersöhnlic,2,
596,chimaeric,2,
597,iic,2,
598,lotic,2,
599,hennic,2,
600,altenburgic,2,
601,chalic,2,
602,bohemic,2,
603,willic,2,
604,ischiadic,2,
605,klettwic,2,
606,albric,2,
607,gulic,2,
608,elliptic,2,
609,ludic,2,
610,pannonic,2,
611,ympathetic,2,
612,magdeburgic,2,
613,excommunic,2,
614,lapidic,2,
615,caluinistic,2,
616,litic,2,
617,pflic,2,
618,zoologic,2,
619,irenic,2,
620,trebellianic,2,
621,unleserlic,2,
622,eiic,2,
623,ardic,2,
624,coniic,2,
625,hygraulic,2,
626,empyic,2,
627,reinic,2,
628,ossic,2,
629,fréderic,2,
630,metastatic,2,
631,kic,1,
632,orbic,1,
633,ciateric,1,
634,derelic,1,
635,duuic,1,
636,uethic,1,
637,nautic,1,
638,prospic,1,
639,bedic,1,
640,hieroglyphic,1,
641,oelric,1,
642,lusatic,1,
643,omatic,1,
644,lonic,1,
645,peylic,1,
646,hypostatic,1,
647,ackersdiic,1,
648,lodouic,1,
649,hæretic,1,
650,nachric,1,
651,runic,1,
652,typic,1,
653,fennic,1,
654,gattic,1,
655,lächerlic,1,
656,masoretic,1,
657,tympanic,1,
658,asiatic,1,
659,boscouic,1,
660,cultetic,1,
661,ottomannic,1,
662,turcic,1,
663,leiberic,1,
664,gründlic,1,
665,hanoic,1,
666,diopatric,1,
667,cryptic,1,
668,trapezitic,1,
669,haemoptoic,1,
670,antiquarioiuridic,1,
671,neuerlic,1,
672,weiblic,1,
673,käyserlic,1,
674,orthographic,1,
675,unterzeic,1,
676,idiomatic,1,
677,ehrenreic,1,
678,bonic,1,
679,oeffentlic,1,
680,pomeranic,1,
681,heimlic,1,
682,antifanatic,1,
683,uersühnlic,1,
684,alamodic,1,
685,addic,1,
686,brittannic,1,
687,fronleic,1,
688,lennic,1,
689,mdcic,1,
690,treulic,1,
691,hoeltic,1,
692,uhlic,1,
693,gratific,1,
694,conimbric,1,
695,archidic,1,
696,arratic,1,
697,areopagitic,1,
698,horologic,1,
699,autentic,1,
700,porric,1,
701,eclectic,1,
702,aufric,1,
703,pythic,1,
704,mythologic,1,
705,offendic,1,
706,isagogic,1,
707,euergetic,1,
708,historicocritic,1,
709,weinreic,1,
710,lustric,1,
711,brittanic,1,
712,antepraedic,1,
713,malefic,1,
714,donic,1,
715,yllabic,1,
716,acrostic,1,
717,diplomatic,1,
718,ueonic,1,
719,danic,1,
720,cornific,1,
721,torric,1,
722,chrematistic,1,
723,parasceuastic,1,
724,abbathic,1,
725,gestic,1,
726,apodictic,1,
727,brocardic,1,
728,antipontific,1,
729,elegetic,1,
730,pathophisiologic,1,
731,grammlic,1,
732,afflic,1,
733,helfric,1,
734,theurgic,1,
735,zelandic,1,
736,ubic,1,
737,kerbic,1,
738,omalandic,1,
739,bethlehemitic,1,
740,tritic,1,
741,lendric,1,
742,uiuic,1,
743,philosphoic,1,
744,cheic,1,
745,gymnic,1,
746,depic,1,
747,chemicomedic,1,
748,henotic,1,
749,uetic,1,
750,acatholic,1,
751,therpeutic,1,
752,gnostic,1,
753,petrific,1,
754,minsnic,1,
755,metaphoric,1,
756,iehnic,1,
757,laymannic,1,
758,adiudic,1,
759,peccatric,1,
760,masorethic,1,
761,uictric,1,
762,bleic,1,
763,ublic,1,
764,heraldic,1,
765,eraphic,1,
766,zutphanic,1,
767,borric,1,
768,miseric,1,
769,distic,1,
770,israëlitic,1,
771,meinic,1,
772,priesterlic,1,
773,dauidic,1,
774,zeibic,1,
775,hierarchic,1,
776,adelic,1,
777,riemsdiic,1,
778,anabaptistic,1,
779,uelauic,1,
780,lexic,1,
781,penic,1,
782,lutzenwic,1,
783,postpraedic,1,
784,isoperimetric,1,
785,pratristic,1,
786,acromatic,1,
787,fulminatric,1,
788,piratic,1,
789,habsburgic,1,
790,hydroscopic,1,
791,nomic,1,
792,abrahamitic,1,
793,emphyteutic,1,
794,yllogistic,1,
795,uenatic,1,
796,inaedific,1,
797,hinric,1,
798,praeuaric,1,
799,copernic,1,
800,menschlic,1,
801,elic,1,
802,rebuspublic,1,
803,rechtlic,1,
804,embateutic,1,
805,ueuic,1,
806,ubsic,1,
807,aquatic,1,
808,noachic,1,
809,limperic,1,
810,päbstlic,1,
811,noetic,1,
812,anatomicochirurgic,1,
813,poradic,1,
814,democratic,1,
815,aristocratic,1,
816,bodamic,1,
817,mdcciic,1,
818,mercatric,1,
819,archaeologic,1,
820,apollinaristic,1,
821,agonistic,1,
822,rouzic,1,
823,elenchtic,1,
824,iungnic,1,
825,barbaric,1,
826,pietistic,1,
827,herrlic,1,
828,fürsic,1,
829,erric,1,
830,bouric,1,
831,romanogermanic,1,
832,piscic,1,
833,didic,1,
834,prussic,1,
835,nauarric,1,
836,hedderic,1,
837,meiric,1,
838,churic,1,
839,helferic,1,
840,folkungic,1,
841,theosophic,1,
842,paradoxic,1,
843,exemplific,1,
844,chändlic,1,
845,antidysenteric,1,
846,wallric,1,
847,metropolitic,1,
848,früchtenic,1,
849,adacemic,1,
850,philisophic,1,
851,haffnic,1,
852,uasallatic,1,
853,lyneburgic,1,
854,meteorologic,1,
855,transisalanic,1,
856,œconomic,1,
857,didactic,1,
858,hartwic,1,
859,zülic,1,
860,idolatric,1,
861,knic,1,
862,glorific,1,
863,baltic,1,
864,deific,1,
865,uecic,1,
866,uegetatric,1,
867,postcarolingic,1,
868,fibic,1,
869,auxiliatric,1,
870,inauguralismedic,1,
871,heindenric,1,
872,geschic,1,
873,hartzic,1,
874,ohnunumgänglic,1,
875,richterlic,1,
876,anctonic,1,
877,quic,1,
878,absic,1,
879,chronostic,1,
880,friieric,1,
881,cardialgic,1,
882,frutic,1,
883,haenzoptoic,1,
884,curatic,1,
885,decic,1,
886,haematitic,1,
887,intermedic,1,
888,meibonic,1,
889,uermic,1,
890,périodic,1,
891,facic,1,
892,aic,1,
893,ridic,1,
894,physiognomic,1,
895,billic,1,
896,mülic,1,
897,physiolsgic,1,
898,rific,1,
899,tragic,1,
900,arcotic,1,
901,uortic,1,
902,athmospheric,1,
903,istric,1,
904,nartotic,1,
905,iniic,1,
906,hartuic,1,
907,destructric,1,
908,cicatric,1,
909,perpendic,1,
910,castrithierric,1,
911,oepidemic,1,
912,ophthalmic,1,
913,bedaric,1,
914,forfic,1,
915,pneumonic,1,
916,mertlic,1,
917,pysic,1,
918,resic,1,
919,bullic,1,
920,uellic,1,
921,eudiometric,1,
922,fettic,1,
923,effectric,1,
924,benoic,1,
925,pratric,1,
926,mesteric,1,
927,parauic,1,
928,directric,1,
929,ymic,1,
930,rotemburgic,1,
931,chlyfic,1,
932,medicopractic,1,
933,federic,1,
934,klaeric,1,
935,pubic,1,
936,ceruic,1,
937,lesuic,1,
938,classific,1,
939,redlic,1,
940,obstitric,1,
941,nesteric,1,
942,hoflic,1,
943,heic,1,
944,pandic,1,
945,diaphragmatic,1,
946,ambodic,1,
947,nudic,1,
948,anapnoic,1,
949,cosmetic,1,
950,antiscorbutic,1,
951,emic,1,
952,imiotic,1,
953,heinic,1,
954,naric,1,
955,chlesuic,1,
956,autocratic,1,
957,anatomicophysiologic,1,
958,equanic,1,
959,dephlogistic,1,
960,arnoldic,1,
961,acetific,1,
962,betonic,1,
963,atmosphoriic,1,
964,capric,1,
965,adpendic,1,
966,tradic,1,
967,emiologic,1,
968,deriuatric,1,
969,pysiologic,1,
970,promultiplic,1,
971,mediatric,1,
972,pellic,1,
973,mocklic,1,
974,hammeric,1,
975,pharmacologic,1,
976,praeiydic,1,
977,uitriolic,1,
978,zic,1,
979,mannic,1,
980,meseraic,1,
981,edlic,1,
982,ascitic,1,
983,haemorrhoic,1,
984,diatetic,1,
985,thymic,1,
986,hornic,1,
987,affectic,1,
988,uolckreic,1,
989,oehmic,1,
990,essentific,1,
991,pyrotechnic,1,
992,dédic,1,
993,architectonic,1,
994,physiatric,1,
995,imlic,1,
996,hochansehnlic,1,
997,wassic,1,
998,prosthetic,1,
999,christlic,1,
1000,chwaegric,1,
1001,carbonic,1,
1002,uisic,1,
1003,labic,1,
1004,formic,1,
1005,arthric,1,
1006,concoctric,1,
1007,antipodagric,1,
1008,paraplectic,1,
1009,olanic,1,
1010,pric,1,
1011,poedartrophic,1,
1012,chyrurgic,1,
1013,cléric,1,
1014,thic,1,
1015,assimilatric,1,
1016,ehrenric,1,
1017,archimbaldic,1,
1018,ubiicic,1,
1019,inspic,1,
1020,udoric,1,
1021,görlic,1,
1022,monspelic,1,
1023,atmosphaeric,1,
1024,punic,1,
1025,opiatic,1,
1026,mimic,1,
1027,cortyic,1,
1028,toxic,1,
1029,ubiicitsubiic,1,
1030,peroffic,1,
1031,docimastic,1,
1032,flexic,1,
1033,péric,1,
1034,psoric,1,
1035,typtic,1,
1036,ubfic,1,
1037,werlic,1,
1038,pràctic,1,
1039,nepomic,1,
1040,emedic,1,
1041,cutic,1,
1042,pulmonic,1,
1043,muylwiic,1,
1044,burgic,1,
1045,emeotic,1,
1046,ischiatic,1,
1047,purific,1,
1048,mildreic,1,
1049,aetiologic,1,
1050,cataleptic,1,
1051,haeynic,1,
1052,henderic,1,
1053,osterreic,1,
1054,ocratic,1,
1055,hentric,1,
1056,heimreic,1,
1057,coelic,1,
1058,macteric,1,
1059,apostolouic,1,
1060,atmospheric,1,
1061,quadruplic,1,
1062,antiepileptic,1,
1063,chweic,1,
1064,incoreticopraetic,1,
1065,impic,1,
1066,licentiatic,1,
1067,excernic,1,
1068,myohitic,1,
1069,plenic,1,
1070,endungsgeschic,1,
1071,panistritic,1,
1072,omic,1,
1073,momordic,1,
1074,epigastric,1,
1075,bergic,1,
1076,uiric,1,
1077,horic,1,
1078,olitic,1,
1079,koelic,1,
1080,haemorrhagic,1,
1081,uldalric,1,
1082,bronsuic,1,
1083,caric,1,
1084,fracturapollic,1,
1085,crustaphlogistic,1,
1086,1780public,1,
1087,uertic,1,
1088,plethoric,1,
1089,phrenitic,1,
1090,iatrosophic,1,
1091,flic,1,
1092,uerdic,1,
1093,ptarmic,1,
1094,parabolic,1,
1095,fideric,1,
1096,praic,1,
1097,heydric,1,
1098,würcklic,1,
1099,brunswic,1,
1100,noruegic,1,
1101,casuistic,1,
1102,infic,1,
1103,pagyric,1,
1104,cathechetic,1,
1105,eccesiastic,1,
1106,bürgerlic,1,
1107,qualific,1,
1108,proxenetic,1,
1109,alomonaic,1,
1110,elswic,1,
1111,antidysanteric,1,
1112,afric,1,
1113,tropic,1,
1114,adminic,1,
1115,nomothetic,1,
1116,luneburgic,1,
1117,anthropologic,1,
1118,boruscic,1,
1119,lenric,1,
1120,abiudic,1,
1121,psychologic,1,
1122,fridéric,1,
1123,rochlic,1,
1124,misric,1,
1125,emmric,1,
1126,chymific,1,
1127,wunderlic,1,
1128,pudic,1,
1129,catharctic,1,
1130,langobardic,1,
1131,curic,1,
1132,zullic,1,
1133,russic,1,
1134,uernic,1,
1135,guzmanic,1,
1136,harduic,1,
1137,erotic,1,
1138,bugnic,1,
1139,hardezuic,1,
1140,curific,1,
1141,cientific,1,
1142,guilic,1,
1143,pannic,1,
1144,emperic,1,
1145,peripneumonic,1,
1146,erunouic,1,
1147,umic,1,
1148,uagascorbutic,1,
1149,phthisiologic,1,
1150,contemplatric,1,
1151,emric,1,
1152,gaelic,1,
1153,accademic,1,
1154,inimic,1,
1155,chilific,1,
1156,foenic,1,
1157,biblicophysic,1,
1158,hygiologic,1,
1159,aenigmatic,1,
1160,ultric,1,
1161,aloëtic,1,
1162,ubilic,1,
1163,dulcific,1,
1164,rhumatic,1,
1165,patic,1,
1166,nassauic,1,
1167,diuertic,1,
1168,pargyric,1,
1169,pyretologic,1,
1170,dispic,1,
1171,acroamatic,1,
1172,extispic,1,
1173,lamric,1,
1174,metternic,1,
1175,nerckwic,1,
1176,rabic,1,
1177,laconic,1,
1178,patriotic,1,
1179,tueric,1,
1180,limouic,1,
1181,leonic,1,
1182,lemouic,1,
1183,teatomatic,1,
1184,aliptic,1,
1185,rachitic,1,
1186,iaskiewic,1,
1187,chylilic,1,
1188,iaśkiewic,1,
1189,microscopic,1,
1190,emeiotic,1,
1191,rudic,1,
1192,fisic,1,
1193,félic,1,
1194,epispatic,1,
1195,cimbric,1,
1196,humic,1,
1197,choenburgic,1,
1198,cheuic,1,
1199,nimic,1,
1200,rhachitic,1,
1201,uropoietic,1,
1202,wartzburgic,1,
1203,dromatic,1,
1204,uentriculic,1,
1205,électric,1,
1206,uonpournic,1,
1207,furic,1,
1208,cataloptic,1,
1209,rauensbergic,1,
1210,exic,1,
1211,ontic,1,
1212,cephalic,1,
1213,endemic,1,
1214,fredric,1,
1215,cosmic,1,
1216,chymiatric,1,
1217,ludoic,1,
1218,diexodic,1,
1219,mortic,1,
1220,philosophicomedic,1,
1221,fridiric,1,
1222,möinic,1,
1223,ioachimic,1,
1224,aeromatic,1,
1225,rectific,1,
1226,herric,1,
