,0
0,electric
1,cheirurgic
2,astronomic
3,pythagoric
4,iuridic
5,botanic
6,medic
7,prophetic
8,therapeutic
9,theologic
10,geometric
12,pharmaceutic
13,aetiologic
15,ethic
16,scientific
17,haeretic
18,atmosphaeric
19,philologic
20,zoologic
21,anatomic
22,chronic
23,politic
24,mathematic
25,obstetric
26,apologetic
27,music
29,historic
30,metaphysic
31,geographic
33,iurisdic
34,diaetetic
35,ecclesiastic
36,epidemic
37,clinic
38,catholic
40,symbolic
41,diplomatic
43,chemic
44,hermeneutic
45,médic
48,pneumatic
49,physic
54,philosophic
55,epistolic
57,nosologic
58,logic
63,entomologic
69,diagnostic
78,semeiotic
80,etymologic
85,apostolic
87,mechanic
92,genealogic
93,medicatric
94,hydraulic
100,chymic
107,chirurgic
108,exegetic
116,psychologic
118,semiotic
120,stoic
121,arithmetic
122,magnetic
123,emetic
124,chronologic
127,grammatic
145,platonic
180,poetic
181,cosmologic
188,pathologicamedic
194,iurispublic
203,peripatetic
207,aristotelic
212,rhetoric
216,meteorologic
221,pathologic
250,catechetic
269,historicomineralogic
274,dialectic
292,hysteric
301,optic
306,eucharistic
316,hydrostatic
327,prognostic
341,chorographic
346,splanchnologic
425,dioptric
644,medicoçlinic
726,medicobotanic
781,physicomedic
