,0
268,aetiologic
10,anatomic
78,apologetic
12,apostolic
1,aristotelic
53,arithmetic
127,astronomic
403,atmosphaeric
93,botanic
278,catechetic
54,catholic
22,cheirurgic
30,chemic
26,chirurgic
36,chorographic
51,chronic
0,chronologic
59,chymic
57,clinic
485,cosmologic
198,diaetetic
302,diagnostic
82,dialectic
540,dioptric
41,diplomatic
46,ecclesiastic
73,electric
34,emetic
42,entomologic
228,epidemic
119,epistolic
7,ethic
226,etymologic
160,eucharistic
125,exegetic
74,genealogic
5,geographic
87,geometric
18,grammatic
90,haeretic
16,hermeneutic
65,historic
530,historicomineralogic
115,hydraulic
50,hydrostatic
247,hysteric
58,iuridic
49,iurisdic
606,iurispublic
39,logic
365,magnetic
282,mathematic
13,mechanic
6,medic
45,medicatric
180,medicobotanic
469,medicoçlinic
133,metaphysic
299,meteorologic
43,music
9,médic
353,nosologic
14,obstetric
21,optic
11,pathologic
313,pathologicamedic
138,peripatetic
17,pharmaceutic
33,philologic
76,philosophic
2,physic
659,physicomedic
252,platonic
89,pneumatic
70,poetic
100,politic
4,prognostic
190,prophetic
219,psychologic
24,pythagoric
136,rhetoric
38,theologic
56,therapeutic
52,zoologic
