,Stem,Count
0,medic,14832
1,public,11849
2,iuridic,5532
3,frideric,5270
4,henric,3332
5,ubiic,3191
6,theologic,3076
7,lic,2236
8,ludouic,1958
9,ic,1678
10,mic,1533
11,nic,1485
12,auspic,1430
13,magnific,1247
14,philologic,1204
15,academic,1171
16,philosophic,1136
17,historic,1117
18,physic,1002
19,chirurgic,847
20,heinric,839
21,iudic,818
22,friedric,641
23,dic,634
24,anatomic,591
25,germanic,571
26,practic,544
27,ecclesiastic,451
28,politic,444
29,indic,421
30,misnic,402
31,uindic,390
32,ric,384
33,physiologic,380
34,uic,334
35,explic,333
36,benedic,329
37,canonic,320
38,critic,304
39,offic,298
40,ulric,296
41,exegetic,260
42,pontific,255
43,reic,245
44,botanic,230
45,codic,202
46,chemic,195
47,axonic,191
48,diffic,188
49,metaphysic,187
50,logic,184
51,dominic,182
52,marchic,176
53,iurisdic,169
54,felic,163
55,noric,156
56,fabric,156
57,friederic,153
58,mathematic,149
59,euangelic,148
60,pathologic,143
61,eric,142
62,pic,139
63,effic,135
64,dieteric,132
65,ethic,130
66,aulic,127
67,amic,125
68,implic,123
69,artic,123
70,delic,123
71,orbonic,122
72,benefic,116
73,cleric,113
74,catholic,111
75,uesic,108
76,chymic,106
77,therapeutic,100
78,fic,100
79,brunsuic,99
80,apostolic,98
81,obstetric,95
82,brandenburgic,93
83,uentric,92
84,iustific,92
85,partic,92
86,peric,89
87,iudaic,85
88,reipublic,82
89,theoretic,79
90,wic,77
91,colic,75
92,magdeburgic,75
93,fideic,71
94,geric,68
95,biblic,66
96,clinic,66
97,uatic,66
98,mechanic,66
99,epic,66
100,eic,64
101,unic,64
102,dogmatic,64
103,ciic,62
104,apologetic,61
105,ignific,60
106,tric,57
107,homic,56
108,artific,55
109,epidemic,55
110,frederic,55
111,applic,54
112,rustic,54
113,praedic,53
114,gallic,53
115,astronomic,52
116,cortic,50
117,illic,49
118,conflic,49
119,republic,48
120,hysteric,48
121,chronic,47
122,praeiudic,46
123,antic,46
124,hebraic,46
125,cic,45
126,acrific,44
127,diiudic,44
128,inoffic,43
129,mystic,42
130,fascic,42
131,methodic,42
132,uspic,41
133,goelic,41
134,pecific,40
135,edic,40
136,chronologic,40
137,ymbolic,39
138,polemic,39
139,nauarric,38
140,condic,37
141,bic,37
142,dietric,37
143,domestic,37
144,teic,37
145,duplic,37
146,periodic,37
147,epistolic,36
148,hermeneutic,36
149,euic,36
150,electric,35
151,rhetoric,35
152,luneburgic,34
153,prophetic,34
154,mauric,34
155,fric,33
156,haeretic,33
157,kemmeric,33
158,interdic,33
159,poetic,32
160,yndic,32
161,aedific,32
162,upplic,32
163,americ,31
164,uindelic,31
165,geographic,31
166,bellic,31
167,oeconomic,30
168,angelic,30
169,radic,30
170,restric,30
171,conspic,30
172,ynoptic,30
173,triplic,29
174,relic,29
175,franconic,29
176,fanatic,29
177,communic,29
178,hic,29
179,mosaic,29
180,classic,29
181,theoric,29
182,arabic,29
183,chaumburgic,28
184,umbilic,28
185,habic,28
186,diaetetic,28
187,metallic,28
188,tunic,27
189,hulderic,27
190,prutenic,27
191,borussic,27
192,magic,27
193,ualedic,27
194,emetic,27
195,opific,27
196,appendic,26
197,huldric,26
198,pharmaceutic,26
199,pasmodic,26
200,complic,26
201,theodoric,26
202,analytic,25
203,agric,25
204,music,25
205,médic,25
206,wirtembergic,25
207,funic,25
208,hanoic,25
209,cholastic,25
210,gorlic,25
211,weic,24
212,diplomatic,24
213,propemptic,24
214,maic,24
215,dideric,24
216,conuic,24
217,uffic,24
218,chemnic,24
219,pneumatic,24
220,chwartzburgic,23
221,cilic,23
222,fridric,23
223,chimic,23
224,talmudic,23
225,anctific,22
226,perspic,22
227,diederic,22
228,grammatic,22
229,patric,22
230,abic,22
231,ehrlic,21
232,westphalic,21
233,meteorologic,21
234,ienic,21
235,leic,21
236,laic,21
237,immatric,21
238,lignic,20
239,francic,20
240,anglic,20
241,wurtembergic,20
242,hippocratic,20
243,geometric,20
244,munic,19
245,infantic,19
246,exotic,19
247,wittic,19
248,corbutic,18
249,mdcic,18
250,auric,18
251,chwarzburgic,18
252,rechtlic,18
253,brocardic,18
254,lumbric,18
255,tic,18
256,profic,18
257,chic,18
258,hungaric,18
259,confic,18
260,panegyric,18
261,nassoic,18
262,inimic,18
263,cantic,18
264,böttic,17
265,affic,17
266,babylonic,17
267,inuic,17
268,nassouic,17
269,heluetic,17
270,pragmatic,17
271,emmeric,17
272,elastic,17
273,hoenloic,17
274,rabbinic,17
275,adelic,17
276,udalric,17
277,abdic,16
278,diteric,16
279,pacific,16
280,hectic,16
281,genealogic,16
282,ueuic,16
283,hennebergic,15
284,diaphoretic,15
285,authentic,15
286,malefic,15
287,aristotelic,15
288,heydenreic,15
289,geistlic,15
290,lotic,15
291,cystic,15
292,emphyteutic,15
293,uecic,15
294,omlandic,15
295,contradic,15
296,longobardic,15
297,optic,15
298,belgic,15
299,alic,14
300,oecumenic,14
301,gleic,14
302,pflic,14
303,mecklenburgic,14
304,adplic,14
305,eucharistic,14
306,platonic,14
307,psychologic,14
308,defic,14
309,adminic,14
310,multiplic,13
311,extraiudic,13
312,dedic,13
313,parric,13
314,honorific,13
315,teutonic,13
316,dialectic,13
317,emiotic,13
318,anguific,13
319,prognostic,13
320,catechetic,13
321,maiestatic,13
322,diagnostic,13
323,lipsic,13
324,phisiologic,13
325,ystematic,13
326,matric,13
327,exanthematic,13
328,chaldaic,13
329,uaric,12
330,irenic,12
331,maledic,12
332,uenefic,12
333,gastric,12
334,derelic,12
335,heluic,12
336,uomic,12
337,huic,12
338,italic,12
339,glorific,12
340,uidnic,12
341,alphabetic,12
342,emeiotic,12
343,polonic,12
344,leuitic,12
345,helfferic,12
346,harmonic,12
347,brunouic,12
348,espic,12
349,penic,12
350,thetic,12
351,ditteric,11
352,addic,11
353,papistic,11
354,perfic,11
355,pernic,11
356,beric,11
357,dauidic,11
358,plic,11
359,ebraic,11
360,refic,11
361,israelitic,11
362,chlic,11
363,empiric,11
364,apocalyptic,11
365,lymphatic,11
366,willic,11
367,peinlic,11
368,emic,11
369,lesuic,11
370,iric,10
371,essic,10
372,attic,10
373,öffentlic,10
374,cicic,10
375,eclectic,10
376,chylific,10
377,hemic,10
378,hieroglyphic,10
379,epileptic,10
380,nutric,10
381,trebellianic,10
382,organic,10
383,immodic,10
384,chädlic,10
385,lustric,10
386,toic,10
387,beic,10
388,problematic,10
389,ceptic,10
390,elswic,10
391,homeric,10
392,gryphic,10
393,medicatric,10
394,göttlic,10
395,elic,9
396,hydropic,9
397,uperfic,9
398,obiic,9
399,christlic,9
400,peripatetic,9
401,geschic,9
402,calic,9
403,ehelic,9
404,ubic,9
405,würtembergic,9
406,idiopathic,9
407,arthritic,9
408,priesterlic,9
409,persic,9
410,topic,9
411,elenctic,9
412,gothic,9
413,diabolic,9
414,rubric,9
415,zoologic,9
416,arithmetic,9
417,amplific,9
418,görlic,8
419,lemouic,8
420,uiuific,8
421,tomachic,8
422,acatholic,8
423,cheirurgic,8
424,meretric,8
425,miseric,8
426,excommunic,8
427,pollic,8
428,hohenloic,8
429,prussic,8
430,frédéric,8
431,hendric,8
432,deic,8
433,clauic,8
434,anthelmintic,8
435,typic,8
436,wurtenbergic,8
437,lexic,8
438,orific,8
439,chleic,8
440,ethnic,8
441,neoteric,8
442,hispanic,8
443,entomologic,8
444,hepatic,8
445,morganatic,8
446,rempublic,8
447,gründlic,8
448,helwic,8
449,nephritic,8
450,ehrenreic,8
451,iic,8
452,quadruplic,8
453,nützlic,8
454,domic,8
455,ungleic,7
456,cathartic,7
457,alsatic,7
458,fontic,7
459,munific,7
460,menschlic,7
461,prædic,7
462,respic,7
463,insuffic,7
464,monastic,7
465,axiomatic,7
466,heroic,7
467,uersic,7
468,intric,7
469,zollic,7
470,reiic,7
471,tonic,7
472,thoracic,7
473,mdccic,7
474,hæretic,7
475,infelic,7
476,dulcific,7
477,guelphic,7
478,zeibic,7
479,chorographic,7
480,diuretic,7
481,nautic,7
482,froelic,7
483,phoenic,7
484,zwic,7
485,oelric,7
486,hydraulic,7
487,uergleic,7
488,exercic,7
489,helfric,7
490,abbathic,7
491,hydrostatic,7
492,nomic,7
493,rerumpublic,7
494,heraldic,7
495,ludiuic,7
496,hermetic,7
497,turcic,7
498,mdciic,7
499,characteristic,7
500,tragic,7
501,uuic,7
502,bauaric,7
503,carnific,7
504,hartwic,7
505,neomarchic,7
506,coldic,7
507,hypostatic,7
508,censitic,7
509,gerichtlic,7
510,männlic,6
511,elenchtic,6
512,fürstlic,6
513,afric,6
514,quic,6
515,meclenburgic,6
516,laodic,6
517,interimistic,6
518,ympathetic,6
519,langobardic,6
520,zugleic,6
521,bric,6
522,magnetic,6
523,ymptomatic,6
524,propric,6
525,pythagoric,6
526,podagric,6
527,curric,6
528,lithontriptic,6
529,cutic,6
530,narcotic,6
531,pomeranic,6
532,weiblic,6
533,balthic,6
534,atmosphaeric,6
535,lubric,6
536,chweic,6
537,ilic,6
538,eigentlic,6
539,manic,6
540,bituric,6
541,qualific,6
542,porussic,6
543,uäterlic,6
544,arnic,6
545,adamitic,6
546,afflic,6
547,lusatic,6
548,gnostic,6
549,gestric,6
550,imperatric,6
551,danic,6
552,lengnic,6
553,guic,6
554,microcosmic,6
555,propemtic,6
556,uiogothic,6
557,cyclic,5
558,ulic,5
559,iaenic,5
560,depic,5
561,pietistic,5
562,conseruatric,5
563,dioptric,5
564,obrigkeitlic,5
565,iurispublic,5
566,architectonic,5
567,carific,5
568,tutric,5
569,cosmologic,5
570,bezoardic,5
571,pulic,5
572,cimbric,5
573,hardouic,5
574,britannic,5
575,aluific,5
576,herpetic,5
577,pratic,5
578,münnic,5
579,toxic,5
580,cientific,5
581,mephitic,5
582,wunderlic,5
583,pedic,5
584,goerlic,5
585,respublic,5
586,bürgerlic,5
587,plenetic,5
588,infic,5
589,fleischlic,5
590,phisic,5
591,ecliptic,5
592,höfflic,5
593,kayserlic,5
594,testic,5
595,hinric,5
596,etymologic,5
597,tropologic,5
598,morbific,5
599,cenic,5
600,ratific,5
601,inflic,5
602,rheumatic,5
603,anic,5
604,natürlic,5
605,ungaric,5
606,caustic,5
607,emeric,5
608,denic,5
609,frontispic,5
610,peristaltic,5
611,heinic,5
612,cachectic,5
613,pric,5
614,bethlehemitic,5
615,phthisic,5
616,baltic,5
617,züllic,5
618,ynthetic,4
619,altenburgic,4
620,modific,4
621,eptic,4
622,typographic,4
623,pubic,4
624,exoteric,4
625,chlesuic,4
626,lotharingic,4
627,emmric,4
628,extric,4
629,isagogic,4
630,loric,4
631,ollic,4
632,pathetic,4
633,purific,4
634,puplic,4
635,pyric,4
636,antispasmodic,4
637,turic,4
638,ossific,4
639,zic,4
640,aetiologic,4
641,oldenburgic,4
642,coelic,4
643,euberlic,4
644,aromatic,4
645,formic,4
646,uendic,4
647,prinic,4
648,adstric,4
649,patristic,4
650,dysenteric,4
651,tillic,4
652,conuentic,4
653,adiic,4
654,didactic,4
655,uitric,4
656,uasallitic,4
657,catharctic,4
658,brunswic,4
659,dergleic,4
660,catoptric,4
661,ascetic,4
662,paedagogic,4
663,apodictic,4
664,thuringic,4
665,gymnastic,4
666,nosologic,4
667,ellric,4
668,fructific,4
669,furic,4
670,phlogistic,4
671,temmic,4
672,helffric,4
673,cubic,4
674,orbic,4
675,treic,4
676,ieric,4
677,billic,4
678,epigastric,4
679,frölic,4
680,planchnologic,4
681,prophylactic,4
682,choenburgic,4
683,ulpic,4
684,adiudic,4
685,neric,4
686,lapic,4
687,hollandic,4
688,poëtic,4
689,harderouic,4
690,antepileptic,4
691,burgundic,4
692,arsenic,4
693,teinic,4
694,filic,4
695,docimastic,4
696,claudic,4
697,chändlic,4
698,hygietic,4
699,zuic,4
700,iesuitic,4
701,gülic,4
702,gebräuchlic,4
703,cathedratic,4
704,peroffic,4
705,hennic,4
706,leoburgic,4
707,uldaric,3
708,islandic,3
709,barbaric,3
710,mineralogic,3
711,adlic,3
712,plethoric,3
713,hyperic,3
714,metaphisic,3
715,climacteric,3
716,masorethic,3
717,königreic,3
718,wallic,3
719,idic,3
720,generic,3
721,hieric,3
722,milic,3
723,alberic,3
724,diabetic,3
725,armenic,3
726,henotic,3
727,erric,3
728,distric,3
729,antidysenteric,3
730,motric,3
731,metastatic,3
732,uehic,3
733,eidenstic,3
734,emric,3
735,aaronitic,3
736,leisnic,3
737,uburbic,3
738,casuistic,3
739,microscopic,3
740,galenic,3
741,halic,3
742,oeffentlic,3
743,phililogic,3
744,pubblic,3
745,mastic,3
746,porismatic,3
747,inspic,3
748,mendic,3
749,bohemic,3
750,missatic,3
751,leswic,3
752,brisgoic,3
753,paracletic,3
754,terlic,3
755,polic,3
756,uiic,3
757,asiatic,3
758,pastic,3
759,fredric,3
760,praeuaric,3
761,pannonic,3
762,algebraic,3
763,fibic,3
764,uergeblic,3
765,mesomarchic,3
766,aremoric,3
767,idolatric,3
768,besic,3
769,aethiopic,3
770,celtic,3
771,frutic,3
772,uésic,3
773,parasceuastic,3
774,numismatic,3
775,cosmetic,3
776,distic,3
777,erratic,3
778,ublic,3
779,theolgic,3
780,choleric,3
781,uiric,3
782,dimic,3
783,gensic,3
784,categoric,3
785,cotic,3
786,alcalic,3
787,unmöglic,3
788,beatific,3
789,curic,3
790,heimreic,3
791,corsic,3
792,eiic,3
793,eurematic,3
794,antichretic,3
795,boettic,3
796,physilogic,3
797,rochlic,3
798,copernic,3
799,hederic,3
800,tatistic,3
801,adpendic,3
802,chuuarzburgic,3
803,melic,3
804,istric,3
805,allegoric,3
806,gäntzlic,3
807,fulminatric,3
808,heidenreic,3
809,holsatic,3
810,classific,3
811,dietheric,3
812,höflic,3
813,gubernatric,3
814,megnific,3
815,armoric,3
816,chwaegric,3
817,forfic,3
818,dispic,3
819,würtenbergic,3
820,icteric,3
821,tatic,3
822,zeic,3
823,brandeburgic,3
824,mesenteric,3
825,etlic,3
826,hellenistic,3
827,uelific,3
828,harderuic,3
829,uictric,3
830,uitriolic,3
831,archic,3
832,pelic,3
833,lennic,3
834,danielitic,3
835,cripturistic,3
836,gewöhnlic,3
837,obstric,3
838,quintuplic,3
839,euertic,3
840,monarchic,3
841,almantic,3
842,cranic,3
843,diedric,3
844,mortific,2
845,cataleptic,2
846,electronic,2
847,lüneburgic,2
848,chymiatric,2
849,thalmudic,2
850,astrologic,2
851,enric,2
852,zullic,2
853,ludowic,2
854,phæric,2
855,anthologic,2
856,haic,2
857,limeric,2
858,chlaic,2
859,hendenreic,2
860,offentlic,2
861,hanseatic,2
862,liturgic,2
863,eremitic,2
864,magnisic,2
865,gulic,2
866,iurdic,2
867,électric,2
868,eumenic,2
869,roehric,2
870,aic,2
871,autodic,2
872,eltenreic,2
873,bullic,2
874,philosohic,2
875,höltic,2
876,hydrocephalic,2
877,contraindic,2
878,russic,2
879,traumatic,2
880,febric,2
881,peilic,2
882,richterlic,2
883,paracelsic,2
884,reinic,2
885,helderic,2
886,topographic,2
887,ædific,2
888,antipodagric,2
889,epispastic,2
890,balsamic,2
891,omic,2
892,olic,2
893,encyclic,2
894,früchtenic,2
895,neurologic,2
896,ceramic,2
897,gütlic,2
898,cosmographic,2
899,tritic,2
900,dolorific,2
901,genitric,2
902,pillic,2
903,zeylanic,2
904,uerbindlic,2
905,hartuic,2
906,macedonic,2
907,diætetic,2
908,kwiatkiewic,2
909,mdic,2
910,inaitic,2
911,pactic,2
912,postcarolingic,2
913,auic,2
914,einzuric,2
915,osteruic,2
916,améric,2
917,uellic,2
918,asthmatic,2
919,foelic,2
920,meinic,2
921,postic,2
922,weltlic,2
923,basilic,2
924,aquatic,2
925,hartzic,2
926,cometic,2
927,odomitic,2
928,emblematic,2
929,babenbergic,2
930,chauenburgic,2
931,orphic,2
932,pulsnic,2
933,ciateric,2
934,ehlic,2
935,heuristic,2
936,iatric,2
937,atomistic,2
938,gic,2
939,peccatric,2
940,pneumatologic,2
941,kläglic,2
942,bleic,2
943,extispic,2
944,leonic,2
945,lupic,2
946,uetic,2
947,chymific,2
948,uolatic,2
949,guelfic,2
950,heic,2
951,benic,2
952,carolingic,2
953,trigonometric,2
954,clarific,2
955,rubic,2
956,cynic,2
957,maginific,2
958,borric,2
959,autric,2
960,unterric,2
961,mellific,2
962,wirtemberic,2
963,meckleburgic,2
964,istoric,2
965,applicatric,2
966,geradic,2
967,permatic,2
968,ianic,2
969,tödtlic,2
970,wirtenbergic,2
971,iniic,2
972,leric,2
973,limpurgic,2
974,thessalonic,2
975,höfic,2
976,hanouic,2
977,æthiopic,2
978,modic,2
979,buchonic,2
980,udiic,2
981,gemeiniglic,2
982,antiseptic,2
983,displic,2
984,mutuatic,2
985,martisburgic,2
986,toemlic,2
987,eclesiastic,2
988,uorsic,2
989,mythologic,2
990,lämric,2
991,noetic,2
992,pellic,2
993,beltic,2
994,idololatric,2
995,antifanatic,2
996,würcklic,2
997,cöstric,2
998,eysenreic,2
999,antiphlogistic,2
1000,gaudic,2
1001,barometric,2
1002,ysenburgic,2
1003,klaeric,2
1004,diaetic,2
1005,punic,2
1006,phytologic,2
1007,abrahamic,2
1008,neulic,2
1009,nimic,2
1010,qualic,2
1011,weidlic,2
1012,absic,2
1013,eraphic,2
1014,medicobotanic,2
1015,fpublic,2
1016,chyrurgic,2
1017,uhrgic,2
1018,helminthologic,2
1019,arausic,2
1020,foenic,2
1021,hauptsächlic,2
1022,iohswic,2
1023,factic,2
1024,osteologic,2
1025,crimmic,2
1026,uerzic,2
1027,aphoristic,2
1028,gedic,2
1029,ribnic,2
1030,républic,2
1031,inaedific,2
1032,einric,2
1033,deuic,2
1034,wernic,2
1035,innic,2
1036,dittric,2
1037,meiric,2
1038,retic,2
1039,äic,2
1040,möglic,2
1041,georgic,2
1042,homiletic,2
1043,möric,2
1044,liebic,2
1045,klüglic,2
1046,uhlic,2
1047,pneumonic,2
1048,protestantic,2
1049,heimlic,2
1050,furidic,2
1051,kic,2
1052,käyserlic,2
1053,ruthenic,2
1054,nothpeinlic,2
1055,chirugic,2
1056,mercatric,2
1057,morgonatic,2
1058,melancholic,2
1059,bechic,2
1060,muriatic,2
1061,empyreumatic,2
1062,lauric,2
1063,hierarchic,2
1064,chwic,2
1065,auxiliatric,2
1066,unuersöhnlic,2
1067,ympathic,2
1068,olympionic,2
1069,elliptic,2
1070,ossic,2
1071,belic,2
1072,endlic,2
1073,ceruic,2
1074,ungeric,2
1075,rebuspublic,2
1076,innerlic,2
1077,klic,2
1078,uasallatic,2
1079,chismatic,2
1080,polyhistoric,2
1081,thelogic,2
1082,chweinic,2
1083,ordentlic,2
1084,entwic,2
1085,mederic,2
1086,unehrlic,2
1087,yntactic,2
1088,cephalic,2
1089,ueronic,2
1090,diuertic,2
1091,lindic,2
1092,abiudic,2
1093,lentic,2
1094,huldreic,2
1095,meic,2
1096,cultetic,2
1097,thologic,2
1098,dinglic,2
1099,deigenetric,2
1100,fornic,2
1101,benfic,2
1102,förchterlic,2
1103,erideric,2
1104,fubiic,2
1105,berücksic,2
1106,duellic,2
1107,caudic,2
1108,lendric,2
1109,emiologic,2
1110,canic,2
1111,pyrotechnic,2
1112,aronitic,2
1113,bodamic,2
1114,hoeltic,2
1115,prosaic,2
1116,kulmic,2
1117,künstlic,2
1118,deutlic,2
1119,ascitic,2
1120,yphilitic,2
1121,colchic,2
1122,paganic,2
1123,wartzburgic,2
1124,psychic,2
1125,kindlic,2
1126,megaric,2
1127,lunaeburgic,2
1128,eigenthümlic,2
1129,meckelnburgic,2
1130,oelreic,2
1131,præiudic,2
1132,klettwic,2
1133,analeptic,2
1134,chöneic,2
1135,portic,2
1136,friceric,2
1137,yncretic,2
1138,bellatric,1
1139,herrlic,1
1140,testamentirlic,1
1141,meckolenburgic,1
1142,uuirtembergic,1
1143,emphanistic,1
1144,eydlic,1
1145,lympurgic,1
1146,ccademic,1
1147,mohammedic,1
1148,pihlosophic,1
1149,prosthetic,1
1150,candic,1
1151,aquic,1
1152,frieric,1
1153,deeeurematic,1
1154,phrygic,1
1155,czytnic,1
1156,inthronistic,1
1157,philosopic,1
1158,poic,1
1159,extraic,1
1160,electic,1
1161,phiosophic,1
1162,wurtemberic,1
1163,chwarzenbachic,1
1164,marasmodic,1
1165,praeseruatric,1
1166,prosatric,1
1167,glottic,1
1168,kräncklic,1
1169,wegeric,1
1170,phaeric,1
1171,haemoptoic,1
1172,chwegric,1
1173,antiphysiologic,1
1174,agaric,1
1175,antasthenic,1
1176,hneric,1
1177,ciagraphic,1
1178,technic,1
1179,dauodic,1
1180,tzwoenic,1
1181,bardeuic,1
1182,replic,1
1183,pudic,1
1184,thönnic,1
1185,epictetic,1
1186,brandenbugic,1
1187,ppblic,1
1188,isenburgic,1
1189,hulewic,1
1190,friedreic,1
1191,henderic,1
1192,onntäglic,1
1193,emeotic,1
1194,ausserordentlic,1
1195,frisic,1
1196,moeric,1
1197,uadic,1
1198,paregoric,1
1199,primic,1
1200,cosmic,1
1201,conficic,1
1202,fructic,1
1203,treffentlic,1
1204,roic,1
1205,tectonic,1
1206,dissertationemiiuridic,1
1207,facic,1
1208,cric,1
1209,abrahamitic,1
1210,kettwic,1
1211,bonific,1
1212,loschuic,1
1213,acronic,1
1214,exomologetic,1
1215,mduiic,1
1216,utic,1
1217,unausbleiblic,1
1218,ophiric,1
1219,glossographic,1
1220,clonic,1
1221,milloradouic,1
1222,ibiic,1
1223,arctic,1
1224,phygmic,1
1225,lüdic,1
1226,chlorotic,1
1227,lanific,1
1228,calatistic,1
1229,philosphic,1
1230,helmic,1
1231,emeiologic,1
1232,brittannic,1
1233,ottomannic,1
1234,mantic,1
1235,idiomatic,1
1236,magedeburgic,1
1237,ulyic,1
1238,tifernitic,1
1239,pistic,1
1240,pyrgic,1
1241,plusic,1
1242,uertic,1
1243,epanorthotic,1
1244,dietetic,1
1245,peripheric,1
1246,antilyssic,1
1247,doctorismedic,1
1248,uorträglic,1
1249,babelic,1
1250,bugnic,1
1251,eruatic,1
1252,testific,1
1253,autentic,1
1254,ritterschaftlic,1
1255,onomastic,1
1256,lapidific,1
1257,elenetic,1
1258,pantologic,1
1259,tyrannic,1
1260,calenbergic,1
1261,ayonic,1
1262,greilic,1
1263,bergwic,1
1264,olympic,1
1265,luuouic,1
1266,archaeoligic,1
1267,couic,1
1268,angesic,1
1269,deific,1
1270,rulic,1
1271,oolitic,1
1272,hornic,1
1273,marihic,1
1274,genetic,1
1275,etsubiic,1
1276,despic,1
1277,freuentlic,1
1278,panic,1
1279,omatic,1
1280,uranic,1
1281,leulic,1
1282,hygiastic,1
1283,peripneumonic,1
1284,antigastric,1
1285,chorografic,1
1286,luouic,1
1287,mysitic,1
1288,quasic,1
1289,terric,1
1290,ohnuorsetzlic,1
1291,romanigermanic,1
1292,lehnspflic,1
1293,fatidic,1
1294,burgic,1
1295,pædartrophic,1
1296,uonic,1
1297,tilic,1
1298,cognatic,1
1299,habsburgic,1
1300,falckenreic,1
1301,meierdingic,1
1302,aussergerichtlic,1
1303,iothamic,1
1304,oberbleic,1
1305,mouric,1
1306,hagiogeographic,1
1307,enonic,1
1308,autic,1
1309,meseraic,1
1310,fælic,1
1311,thalliuuic,1
1312,ontosophic,1
1313,ubdic,1
1314,duric,1
1315,notic,1
1316,aesthetic,1
1317,inaïtic,1
1318,ripatic,1
1319,pensic,1
1320,zugeschic,1
1321,mecleburgic,1
1322,theoogic,1
1323,chiurgic,1
1324,letzlic,1
1325,tactic,1
1326,iamblic,1
1327,aretologic,1
1328,msic,1
1329,ohilologic,1
1330,ciɔiɔccic,1
1331,udbiic,1
1332,lauic,1
1333,kranic,1
1334,pnblic,1
1335,chaertlic,1
1336,duemic,1
1337,marilandic,1
1338,puclic,1
1339,hohenlohic,1
1340,ansehnlic,1
1341,bublic,1
1342,fratric,1
1343,etimologic,1
1344,ludobic,1
1345,emeitic,1
1346,apollinaristic,1
1347,parergic,1
1348,profetic,1
1349,iurudic,1
1350,gymnic,1
1351,mennonitic,1
1352,francofurdic,1
1353,definic,1
1354,hellwic,1
1355,theurgic,1
1356,liuonic,1
1357,palæstric,1
1358,maedic,1
1359,pantocritic,1
1360,uesicatoric,1
1361,ecclesastic,1
1362,gelbic,1
1363,ostric,1
1364,unlric,1
1365,imgleic,1
1366,mülic,1
1367,kemnic,1
1368,cynanchic,1
1369,gemeinschafftlic,1
1370,latic,1
1371,yncopic,1
1372,pasmologic,1
1373,runic,1
1374,proxenetic,1
1375,citic,1
1376,haemorrhagic,1
1377,athalaric,1
1378,mnematic,1
1379,ultric,1
1380,lepatic,1
1381,apric,1
1382,worswic,1
1383,hisoric,1
1384,hoënloic,1
1385,broic,1
1386,chric,1
1387,obstétric,1
1388,zutphanic,1
1389,taic,1
1390,antiiudaic,1
1391,amphictyonic,1
1392,theoreticopractic,1
1393,boscouic,1
1394,ammonic,1
1395,goldic,1
1396,auaric,1
1397,kimic,1
1398,rabulistic,1
1399,brünnic,1
1400,trategematic,1
1401,humic,1
1402,retentric,1
1403,expultric,1
1404,coschwic,1
1405,attractric,1
1406,generatric,1
1407,auctric,1
1408,facultatismedic,1
1409,reuensbergic,1
1410,mathmetic,1
1411,rauric,1
1412,prolic,1
1413,epizootic,1
1414,mediic,1
1415,uldalric,1
1416,cnic,1
1417,iaellandic,1
1418,hentic,1
1419,hysic,1
1420,magific,1
1421,hamburgic,1
1422,épidemic,1
1423,cacochymic,1
1424,physologic,1
1425,liblic,1
1426,neubic,1
1427,zepernic,1
1428,theosophic,1
1429,unehlic,1
1430,ladouic,1
1431,rempubic,1
1432,méphitic,1
1433,munnic,1
1434,tragegic,1
1435,mochammedic,1
1436,gazzanic,1
1437,ægyptic,1
1438,chalic,1
1439,landgeric,1
1440,zülic,1
1441,diindic,1
1442,cythic,1
1443,inauguralesphragistic,1
1444,pathologicamedic,1
1445,antithetic,1
1446,caloric,1
1447,frohnleic,1
1448,pöteuic,1
1449,ogic,1
1450,economic,1
1451,conimbric,1
1452,quodlibetic,1
1453,gnomonic,1
1454,opiatic,1
1455,causidic,1
1456,herric,1
1457,thargumic,1
1458,gattic,1
1459,ludric,1
1460,ludic,1
1461,abstreic,1
1462,petic,1
1463,aric,1
1464,pharmacologic,1
1465,ecclesiasttic,1
1466,bonohenric,1
1467,dramatic,1
1468,predic,1
1469,itic,1
1470,anthropologic,1
1471,benthemic,1
1472,hydrogeographic,1
1473,langheinric,1
1474,recipic,1
1475,ernric,1
1476,parabolic,1
1477,philophic,1
1478,brittanic,1
1479,eritic,1
1480,anamnestic,1
1481,phærographic,1
1482,decadic,1
1483,dyadic,1
1484,dodecadic,1
1485,loimic,1
1486,carolic,1
1487,ractic,1
1488,ostrogothic,1
1489,elpistic,1
1490,fälschlic,1
1491,maginfic,1
1492,exaedific,1
1493,filosofic,1
1494,onderlic,1
1495,adric,1
1496,conymbric,1
1497,aiudic,1
1498,epistastic,1
1499,theoritic,1
1500,ulbric,1
1501,atheistic,1
1502,churfürstlic,1
1503,machiauellistic,1
1504,mechnic,1
1505,erweic,1
1506,pilnic,1
1507,bodic,1
1508,iobic,1
1509,chodkiewic,1
1510,fridenreic,1
1511,dreyköpffic,1
1512,ungütlic,1
1513,gründtlic,1
1514,ausführlic,1
1515,hochlöblic,1
1516,mündlic,1
1517,aneclogistic,1
1518,trebic,1
1519,gewic,1
1520,ubfic,1
1521,niic,1
1522,aflic,1
1523,aenigmatic,1
1524,chronographic,1
1525,laconic,1
1526,apostatic,1
1527,interfectric,1
1528,uemic,1
1529,hochgeric,1
1530,brunsic,1
1531,extraindic,1
1532,mythic,1
1533,krausslic,1
1534,philobiblic,1
1535,ludwouic,1
1536,dalekarlic,1
1537,pancreatic,1
1538,paralytic,1
1539,diatetic,1
1540,betrieglic,1
1541,iamaic,1
1542,unerweisslic,1
1543,catechistic,1
1544,hoefic,1
1545,unleiblic,1
1546,unsic,1
1547,dioinic,1
1548,chmalcaldic,1
1549,diuaric,1
1550,obsletric,1
1551,teatomatic,1
1552,gäckelic,1
1553,paretic,1
1554,exantheamtic,1
1555,annic,1
1556,acroamatic,1
1557,iustric,1
1558,tehlic,1
1559,atanic,1
1560,mdcxic,1
1561,kölic,1
1562,psoadic,1
1563,pathognomonic,1
1564,lithonthryptic,1
1565,chuuartzburgic,1
1566,garlic,1
1567,böslic,1
1568,antipontific,1
1569,wissentlic,1
1570,uincetoxic,1
1571,philomatic,1
1572,iulic,1
1573,concoctric,1
1574,uastatric,1
1575,debellatric,1
1576,uublic,1
1577,fridéric,1
1578,œconomic,1
1579,rhachitic,1
1580,ciɔcic,1
1581,usupractic,1
1582,brösic,1
1583,cuic,1
1584,lactic,1
1585,ophthalmic,1
1586,pannic,1
1587,mischnic,1
1588,mdcciic,1
1589,myristic,1
1590,cheuic,1
1591,obstretric,1
1592,darmgic,1
1593,magniic,1
1594,blumemedic,1
1595,physiognomic,1
1596,irrlic,1
1597,nerckwic,1
1598,renwic,1
1599,acetific,1
1600,pleuritic,1
1601,ludeouic,1
1602,iphylitic,1
1603,typtic,1
1604,kiewic,1
1605,dissertatioiuridic,1
1606,uenatic,1
1607,domric,1
1608,ionic,1
1609,philsophic,1
1610,collybistic,1
1611,massorethic,1
1612,auraic,1
1613,ecclesiaistic,1
1614,urtic,1
1615,erreic,1
1616,ophiritic,1
1617,waerlic,1
1618,hofric,1
1619,yncretistic,1
1620,miscnic,1
1621,domenic,1
1622,ioachimic,1
1623,lauuenburgic,1
1624,ruric,1
1625,guelsic,1
1626,uuspic,1
1627,neuric,1
1628,dephlogistic,1
1629,uornemlic,1
1630,unbeweglic,1
1631,ledic,1
1632,anotomic,1
1633,mexic,1
1634,frorenteic,1
1635,uboffic,1
1636,helic,1
1637,noruegic,1
1638,klinckic,1
1639,caracteristic,1
1640,hatzfeldic,1
1641,prospic,1
1642,bischofflic,1
1643,eecclesiastic,1
1644,pythionic,1
1645,ontologic,1
1646,uersific,1
1647,erbärmlic,1
1648,harthuic,1
1649,angiologic,1
1650,phtisic,1
1651,apoplectic,1
1652,fridreic,1
1653,protomedic,1
1654,kletuuic,1
1655,zheologic,1
1656,angelologic,1
1657,riemsdiic,1
1658,diremtric,1
1659,orabic,1
1660,modpublic,1
1661,terrific,1
1662,eyric,1
1663,iährlic,1
1664,upic,1
1665,wartenbergic,1
1666,deutric,1
1667,pseudocleric,1
1668,frderic,1
1669,coptic,1
1670,conanic,1
1671,chmeic,1
1672,rauic,1
1673,unnützlic,1
1674,unordentlic,1
1675,compositosimplic,1
1676,metaphoric,1
1677,hochzeitlic,1
1678,frewdenreic,1
1679,unempfindlic,1
1680,uermic,1
1681,yncoptic,1
1682,formatric,1
1683,atmosphæric,1
1684,fürchterlic,1
1685,ontic,1
1686,excernic,1
1687,koelic,1
1688,hæmorrhagic,1
1689,daenic,1
1690,heydric,1
1691,metropolitic,1
1692,odoric,1
1693,fodeic,1
1694,eublic,1
1695,chymistic,1
1696,corsonic,1
1697,chromic,1
1698,fiederic,1
1699,pfeilstic,1
1700,monatlic,1
1701,iutic,1
1702,frauenprisnic,1
1703,phisosophic,1
1704,gotthic,1
1705,parasitic,1
1706,oepidemic,1
1707,francsic,1
1708,academiic,1
1709,fenic,1
1710,arcimbaldic,1
1711,bendic,1
1712,hubric,1
1713,intoxic,1
1714,péric,1
1715,apostollic,1
1716,feudic,1
1717,hergewettic,1
1718,uortic,1
1719,minoric,1
1720,bartoszewic,1
1721,adamic,1
1722,luttic,1
1723,lombardic,1
1724,gereic,1
1725,aneurismatic,1
1726,ubmiic,1
1727,gestic,1
1728,üblic,1
1729,adacemic,1
1730,hartenburgic,1
1731,augenblic,1
1732,hanric,1
1733,aplic,1
1734,noeic,1
1735,parallelographic,1
1736,luneborgic,1
1737,interpontific,1
1738,ardic,1
1739,contrauindic,1
1740,antolic,1
1741,cammergeric,1
1742,gnadenreic,1
1743,lucouic,1
1744,brusuic,1
1745,aphaeric,1
1746,bethelic,1
1747,antepraedic,1
1748,dianoetic,1
1749,alamodic,1
1750,chymiotechnic,1
1751,ubbiic,1
1752,mdciiic,1
1753,gratific,1
1754,apic,1
1755,crannic,1
1756,phraseologic,1
1757,flic,1
1758,folglic,1
1759,uperficic,1
1760,hertwic,1
1761,aubiic,1
1762,philisophic,1
1763,umbratic,1
1764,thaumaturgic,1
1765,ubmittiteric,1
1766,cathæretic,1
1767,medicoçlinic,1
1768,cornific,1
1769,1781public,1
1770,estric,1
1771,cryptogamic,1
1772,hostic,1
1773,mertlic,1
1774,cubiic,1
1775,freidric,1
1776,cannebic,1
1777,hoefflic,1
1778,modric,1
1779,uerfänglic,1
1780,unuerfänglic,1
1781,boschouic,1
1782,antiphtisic,1
1783,extuplic,1
1784,ohysic,1
1785,treulic,1
1786,automatic,1
1787,esplic,1
1788,mekelnburgic,1
1789,graphic,1
1790,ehrenric,1
1791,kundenreic,1
1792,nomothetic,1
1793,nauic,1
1794,trategetic,1
1795,anabaptistic,1
1796,theandric,1
1797,pffic,1
1798,nonpraeiudic,1
1799,breuschwic,1
1800,dolouic,1
1801,iatromathematic,1
1802,bilic,1
1803,efflic,1
1804,oteric,1
1805,zimmic,1
1806,istematic,1
1807,bileamic,1
1808,rölic,1
1809,arcastic,1
1810,löbnic,1
1811,agonistic,1
1812,urbic,1
1813,athletic,1
1814,rütenic,1
1815,hydrographic,1
1816,ludwic,1
1817,lawenburgic,1
1818,ptblic,1
1819,teudic,1
1820,brennic,1
1821,zabergoic,1
1822,riferic,1
1823,biic,1
1824,epistemonic,1
1825,wonlic,1
1826,historicomineralogic,1
1827,hardeuic,1
1828,wurttembergic,1
1829,montispelic,1
1830,panharmonic,1
1831,wiederkäufflic,1
1832,parascentastic,1
1833,peylic,1
1834,procuratric,1
1835,kennic,1
1836,hedderic,1
1837,antenic,1
1838,iehnic,1
1839,krosic,1
1840,üssemlic,1
1841,ersatzpflic,1
1842,uernic,1
1843,parasorbic,1
1844,acustic,1
1845,zelandic,1
1846,cannonic,1
1847,exigetic,1
1848,amsonitic,1
1849,ophistic,1
1850,exic,1
1851,ppublic,1
1852,tribunic,1
1853,philolologic,1
1854,chilistic,1
1855,uibic,1
1856,rechlic,1
1857,praesignific,1
1858,rectific,1
1859,uiiic,1
1860,ündlic,1
1861,disdic,1
1862,herzoglic,1
1863,borusic,1
1864,püblic,1
1865,dienlic,1
1866,desertric,1
1867,mmedic,1
1868,delphic,1
1869,latric,1
1870,hörnic,1
1871,palaeomarchic,1
1872,chinonic,1
1873,boldic,1
1874,unleserlic,1
1875,bucolic,1
1876,parthic,1
1877,aufgeric,1
1878,ruheliiublic,1
1879,uidelic,1
1880,ineffic,1
1881,uropoietic,1
1882,bernburgic,1
1883,allemannic,1
1884,lmic,1
1885,epispatic,1
1886,lycaonic,1
1887,inclytiic,1
1888,oontific,1
1889,uitrific,1
1890,rauensbergic,1
1891,philogic,1
1892,dynamic,1
1893,ammonitic,1
1894,milnic,1
1895,glücklic,1
1896,dannebergic,1
1897,bottic,1
1898,ramic,1
1899,württembergic,1
1900,popic,1
1901,hochfürstlic,1
1902,uethic,1
1903,dissic,1
1904,heyrahtsgütlic,1
1905,hypognostic,1
1906,kirchlic,1
1907,profligatric,1
1908,adic,1
1909,flaminic,1
1910,ungeschic,1
1911,reichslehnbürgerlic,1
1912,adfic,1
1913,hypnotic,1
1914,uerderblic,1
1915,exedic,1
1916,escheric,1
1917,terministic,1
1918,mannengeric,1
1919,idiotic,1
1920,lyric,1
1921,choemburgic,1
1922,fraisslic,1
1923,isthmic,1
1924,analogic,1
1925,bischöfflic,1
1926,lectic,1
1927,yric,1
1928,elterlic,1
1929,malcaldic,1
1930,pladic,1
1931,haemorrhoic,1
1932,libellatic,1
1933,antichiliastic,1
1934,landeric,1
1935,chiliastic,1
1936,portugallic,1
1937,nerlic,1
1938,capic,1
1939,adfric,1
1940,pigneratic,1
1941,mellic,1
1942,wubiic,1
1943,ogleic,1
1944,tödlic,1
1945,ohnunumgänglic,1
1946,uogtetic,1
1947,zureic,1
1948,uerric,1
1949,machaonic,1
1950,auctornic,1
1951,goric,1
1952,leistic,1
1953,myologic,1
1954,ehrnreic,1
1955,horologic,1
1956,thomasiiic,1
1957,uerspric,1
1958,haeresiologic,1
1959,austric,1
1960,inic,1
1961,ubiiic,1
1962,ductric,1
1963,wuttic,1
1964,diaphragmatic,1
1965,berlic,1
1966,equanic,1
1967,hellmic,1
1968,chrematistic,1
1969,ohnuorgreifflic,1
1970,chwarzenburgic,1
1971,ummassgeblic,1
1972,nehmlic,1
1973,hadeleric,1
1974,thomistic,1
1975,christologic,1
1976,pilaric,1
1977,psalmodic,1
1978,tücklic,1
1979,cremnic,1
1980,paradigmatic,1
1981,ponhemic,1
1982,frigorific,1
1983,rouzic,1
1984,ttheologic,1
1985,neoeuangelic,1
1986,thaboritic,1
1987,loblic,1
1988,mönnic,1
1989,ocratic,1
1990,feideric,1
1991,offendic,1
1992,uuirtenbergic,1
1993,hygraulic,1
1994,mesaraic,1
1995,edlic,1
1996,gräfflic,1
1997,rolfic,1
1998,cunic,1
1999,yluatic,1
2000,metallurgic,1
2001,freundtlic,1
2002,marpurgic,1
2003,machiauellic,1
2004,expic,1
2005,ziric,1
2006,ciric,1
2007,phrenic,1
2008,alembic,1
2009,uorzüglic,1
2010,uuirsic,1
2011,cardialgic,1
2012,fautric,1
2013,beweglic,1
2014,theodic,1
2015,procreatric,1
2016,neosceptic,1
2017,logistic,1
2018,pleic,1
2019,ponic,1
2020,bonic,1
2021,epidemetic,1
2022,cyrenaic,1
2023,zisic,1
2024,democratic,1
2025,areopagitic,1
2026,pertic,1
2027,miic,1
2028,wetterauic,1
2029,aegyptic,1
2030,dillenburgic,1
2031,haeretific,1
2032,heldenreic,1
2033,enthymematic,1
2034,publlic,1
2035,reuocatric,1
2036,aspic,1
2037,muhammedic,1
2038,uermuthlic,1
2039,gemeinschaftlic,1
2040,uorkommendenrechtlic,1
2041,neuerlic,1
2042,fortific,1
2043,uortrefflic,1
2044,unsterblic,1
2045,woermlic,1
2046,ehmic,1
2047,gennic,1
2048,whic,1
2049,iiic,1
2050,physicomedic,1
2051,tautenburgic,1
2052,ischiadic,1
2053,helftric,1
2054,huldenreic,1
2055,benoic,1
2056,betic,1
2057,oublic,1
2058,noachitic,1
2059,lauonic,1
2060,lungaric,1
2061,horographic,1
2062,fürnehmlic,1
2063,archaeologic,1
2064,urgic,1
2065,uinic,1
2066,unehelic,1
2067,athic,1
2068,goodric,1
2069,alemannic,1
2070,adalric,1
2071,lispic,1
2072,recentic,1
2073,galeric,1
2074,hedic,1
2075,merseburgic,1
2076,hainric,1
2077,ohnmassgeblic,1
2078,firderic,1
2079,pysic,1
2080,ölric,1
2081,grulic,1
2082,helferic,1
2083,erdencklic,1
2084,üublic,1
2085,hauiic,1
2086,gemeinschaftiic,1
2087,plublic,1
2088,niniuitic,1
2089,quamauspic,1
2090,ungebührlic,1
2091,peic,1
2092,laetific,1
2093,uorbildlic,1
2094,aademic,1
2095,oelsnic,1
2096,uersühnlic,1
2097,gefährlic,1
2098,anthelminthic,1
2099,aufric,1
2100,erotic,1
2101,ambodic,1
2102,machic,1
2103,curatric,1
2104,nicolaiuic,1
2105,infiniteic,1
2106,rothnuslic,1
2107,chrifftlic,1
2108,belgarric,1
2109,weinic,1
2110,antonic,1
2111,temmatic,1
2112,genseric,1
2113,fürsic,1
2114,redlic,1
2115,epinic,1
2116,monadic,1
2117,ignic,1
2118,pöttic,1
2119,pharisaic,1
2120,imeitic,1
2121,nassauic,1
2122,croeluic,1
2123,uerschic,1
2124,iuidic,1
2125,ittlic,1
2126,gemaric,1
2127,coniic,1
2128,conic,1
2129,nachric,1
2130,thiric,1
2131,unmassgeblic,1
2132,ubiicic,1
2133,alamannic,1
2134,poradic,1
2135,diric,1
2136,regnatric,1
2137,aaronic,1
2138,homologetic,1
2139,utopic,1
2140,diuinatric,1
2141,cyclopic,1
2142,lauenburgic,1
2143,koranic,1
2144,adiaphoristic,1
2145,pseudomystic,1
2146,protreptic,1
2147,hebraeic,1
2148,eeconomic,1
2149,unterzeic,1
2150,philippic,1
2151,actric,1
2152,namenshandzeic,1
2153,petrific,1
2154,orlic,1
2155,moscouitic,1
